6DC528A53D6E2D33A3A16FEE611B4646.cache.js
locale de

99854EE0FCF3DC5086FB712C05749097.cache.js
locale default

FB3B4A7323E4D429F32BA1AA398BAAF3.cache.js
locale en

FD034F1B14A57799C563E780C408FF6B.cache.js
locale nl

Devmode:devmode.js